Actual_Project_Files/dump.vcd
$date
	Wed Dec 19 03:28:58 2018
$end
$version
	Icarus Verilog
$end
$timescale
	1ps
$end
$scope module thirtytwo_Mips_Testbench $end
$var wire 4 ! LEDs_out [3:0] $end
$var reg 1 " clock $end
$var reg 1 # reset $end
$scope module uut $end
$var wire 1 $ SWITCH_in $end
$var wire 32 % alu_result [31:0] $end
$var wire 1 & beq_Control $end
$var wire 1 " clock $end
$var wire 32 ' pc_Next [31:0] $end
$var wire 32 ( pc_out [31:0] $end
$var wire 1 # reset $end
$var wire 1 ) zero_flag $end
$var wire 1 * sign_or_zero $end
$var wire 32 + sign_ext_Imm [31:0] $end
$var wire 5 , reg_write_Dest [4:0] $end
$var wire 32 - reg_write_Data [31:0] $end
$var wire 32 . reg_read_Data_2 [31:0] $end
$var wire 32 / reg_read_Data_1 [31:0] $end
$var wire 5 0 reg_read_Addr_2 [4:0] $end
$var wire 5 1 reg_read_Addr_1 [4:0] $end
$var wire 1 2 reg_Write $end
$var wire 2 3 reg_Dest [1:0] $end
$var wire 32 4 read_Data2 [31:0] $end
$var wire 32 5 pc_Plus4 [31:0] $end
$var wire 32 6 pc_Beq [31:0] $end
$var wire 32 7 pc_4Beq [31:0] $end
$var wire 32 8 no_sign_Ext [31:0] $end
$var wire 2 9 memtoReg [1:0] $end
$var wire 32 : mem_read_Data [31:0] $end
$var wire 1 ; mem_Write $end
$var wire 1 < mem_Read $end
$var wire 32 = instruct [31:0] $end
$var wire 32 > imm_Shift_2 [31:0] $end
$var wire 1 ? branch $end
$var wire 2 @ aluop [1:0] $end
$var wire 32 A alu_out [31:0] $end
$var wire 1 B alu_Source $end
$var wire 4 C LEDs_out [3:0] $end
$var wire 3 D ALU_Control [2:0] $end
$var reg 32 E pc_Current [31:0] $end
$scope module alu $end
$var wire 32 F secondValue [31:0] $end
$var wire 1 ) zero_flag $end
$var wire 32 G firstValue [31:0] $end
$var wire 3 H alu_control [2:0] $end
$var reg 32 I result [31:0] $end
$upscope $end
$scope module alu_control $end
$var wire 6 J Function [5:0] $end
$var wire 2 K aluop [1:0] $end
$var wire 8 L ALUControlInput [7:0] $end
$var reg 3 M ALU_Control [2:0] $end
$upscope $end
$scope module control $end
$var wire 6 N control [5:0] $end
$var wire 1 # reset $end
$var reg 1 B alu_Source $end
$var reg 2 O aluop [1:0] $end
$var reg 1 ? branch $end
$var reg 1 < mem_Read $end
$var reg 1 ; mem_Write $end
$var reg 2 P memtoReg [1:0] $end
$var reg 2 Q reg_Dest [1:0] $end
$var reg 1 2 reg_Write $end
$var reg 1 * sign_or_zero $end
$upscope $end
$scope module data_memory $end
$var wire 1 " clock $end
$var wire 1 < mem_Read $end
$var wire 32 R mem_access_Addr [31:0] $end
$var wire 1 ; mem_write_En $end
$var wire 8 S ram_Addr [7:0] $end
$var wire 32 T mem_write_Data [31:0] $end
$var wire 32 U mem_read_Data [31:0] $end
$var integer 32 V x [31:0] $end
$upscope $end
$scope module instruction_memory $end
$var wire 32 W pc [31:0] $end
$var wire 4 X rom_Addr [3:0] $end
$var wire 32 Y instruction [31:0] $end
$upscope $end
$scope module register_file $end
$var wire 1 " clock $end
$var wire 5 Z reg_read_Addr_1 [4:0] $end
$var wire 5 [ reg_read_Addr_2 [4:0] $end
$var wire 32 \ reg_write_Data [31:0] $end
$var wire 5 ] reg_write_Dest [4:0] $end
$var wire 1 2 reg_write_En $end
$var wire 1 # reset $end
$var wire 32 ^ reg_read_Data_2 [31:0] $end
$var wire 32 _ reg_read_Data_1 [31:0] $end
$var reg 4 ` LED_state [3:0] $end
$upscope $end
$upscope $end
$upscope $end
$enddefinitions $end
#0
$dumpvars
bx `
b0 _
b1000 ^
b100 ]
b1000 \
b100 [
b0 Z
b1000001100000000000 Y
b0 X
b0 W
b100000000 V
b0 U
b1000 T
b100 S
b1000 R
b0 Q
b0 P
b0 O
b0 N
b0 M
b0 L
b0 K
b0 J
b1000 I
b0 H
b0 G
b1000 F
b0 E
b0 D
bx C
0B
b1000 A
b0 @
0?
b110000000000000 >
b1000001100000000000 =
0<
0;
b0 :
b0 9
b11111111111111111010000000000000 8
b100 7
b110000000000100 6
b100 5
b1000 4
b0 3
02
b0 1
b100 0
b0 /
b1000 .
b1000 -
b100 ,
b1100000000000 +
1*
0)
b0 (
b100 '
0&
b1000 %
0$
1#
0"
bx !
$end
#5000
b11 ,
b11 ]
12
b1 3
b1 Q
0#
#10000
b10 S
b100 -
b100 \
b100 %
b100 A
b100 I
b100 R
b100 4
b100 F
b100 .
b100 T
b100 ^
b101 0
b101 [
b1010001100000000000 =
b1010001100000000000 Y
b110000000001000 6
b1000 '
b1000 7
b1 X
b1000 5
b100 (
b100 E
b100 W
b0 !
b0 C
b0 `
1"
#20000
0"
#30000
b1 S
b10 -
b10 \
b10 %
b10 A
b10 I
b10 R
b10 4
b10 F
b10 .
b10 T
b10 ^
b110 0
b110 [
b1100001100000000000 =
b1100001100000000000 Y
b110000000001100 6
b1100 '
b1100 7
b10 X
b1000 !
b1000 C
b1000 `
b1100 5
b1000 (
b1000 E
b1000 W
1"
#40000
0"
#50000
b0 S
b1 -
b1 \
b1 %
b1 A
b1 I
b1 R
b1 4
b1 F
b1 .
b1 T
b1 ^
b111 0
b111 [
b1110001100000000000 =
b1110001100000000000 Y
b110000000010000 6
b10000 '
b10000 7
b11 X
b10000 5
b1100 (
b1100 E
b1100 W
b100 !
b100 C
b100 `
1"
#60000
0"
#70000
b100 S
b1000 -
b1000 \
b1000 %
b1000 A
b1000 I
b1000 R
b1000 4
b1000 F
b1000 .
b1000 T
b1000 ^
b100 0
b100 [
b1000001100000000000 =
b1000001100000000000 Y
b110000000000100 6
b100 '
b100 7
b0 X
b10 !
b10 C
b10 `
b100 5
b0 (
b0 E
b0 W
1"
#80000
0"
#90000
b10 S
b100 -
b100 \
b100 %
b100 A
b100 I
b100 R
b100 4
b100 F
b100 .
b100 T
b100 ^
b101 0
b101 [
b1010001100000000000 =
b1010001100000000000 Y
b110000000001000 6
b1000 '
b1000 7
b1 X
b1000 5
b100 (
b100 E
b100 W
b1 !
b1 C
b1 `
1"
#100000
0"
#110000
b1 S
b10 -
b10 \
b10 %
b10 A
b10 I
b10 R
b10 4
b10 F
b10 .
b10 T
b10 ^
b110 0
b110 [
b1100001100000000000 =
b1100001100000000000 Y
b110000000001100 6
b1100 '
b1100 7
b10 X
b1000 !
b1000 C
b1000 `
b1100 5
b1000 (
b1000 E
b1000 W
1"
#120000
0"
#130000
b0 S
b1 -
b1 \
b1 %
b1 A
b1 I
b1 R
b1 4
b1 F
b1 .
b1 T
b1 ^
b111 0
b111 [
b1110001100000000000 =
b1110001100000000000 Y
b110000000010000 6
b10000 '
b10000 7
b11 X
b10000 5
b1100 (
b1100 E
b1100 W
b100 !
b100 C
b100 `
1"
#140000
0"
#150000
b100 S
b1000 -
b1000 \
b1000 %
b1000 A
b1000 I
b1000 R
b1000 4
b1000 F
b1000 .
b1000 T
b1000 ^
b100 0
b100 [
b1000001100000000000 =
b1000001100000000000 Y
b110000000000100 6
b100 '
b100 7
b0 X
b10 !
b10 C
b10 `
b100 5
b0 (
b0 E
b0 W
1"
#160000
0"
#170000
b10 S
b100 -
b100 \
b100 %
b100 A
b100 I
b100 R
b100 4
b100 F
b100 .
b100 T
b100 ^
b101 0
b101 [
b1010001100000000000 =
b1010001100000000000 Y
b110000000001000 6
b1000 '
b1000 7
b1 X
b1000 5
b100 (
b100 E
b100 W
b1 !
b1 C
b1 `
1"
#180000
0"
#190000
b1 S
b10 -
b10 \
b10 %
b10 A
b10 I
b10 R
b10 4
b10 F
b10 .
b10 T
b10 ^
b110 0
b110 [
b1100001100000000000 =
b1100001100000000000 Y
b110000000001100 6
b1100 '
b1100 7
b10 X
b1000 !
b1000 C
b1000 `
b1100 5
b1000 (
b1000 E
b1000 W
1"
#200000
0"
#210000
b0 S
b1 -
b1 \
b1 %
b1 A
b1 I
b1 R
b1 4
b1 F
b1 .
b1 T
b1 ^
b111 0
b111 [
b1110001100000000000 =
b1110001100000000000 Y
b110000000010000 6
b10000 '
b10000 7
b11 X
b10000 5
b1100 (
b1100 E
b1100 W
b100 !
b100 C
b100 `
1"
#220000
0"
#230000
b100 S
b1000 -
b1000 \
b1000 %
b1000 A
b1000 I
b1000 R
b1000 4
b1000 F
b1000 .
b1000 T
b1000 ^
b100 0
b100 [
b1000001100000000000 =
b1000001100000000000 Y
b110000000000100 6
b100 '
b100 7
b0 X
b10 !
b10 C
b10 `
b100 5
b0 (
b0 E
b0 W
1"
#240000
0"
#250000
b10 S
b100 -
b100 \
b100 %
b100 A
b100 I
b100 R
b100 4
b100 F
b100 .
b100 T
b100 ^
b101 0
b101 [
b1010001100000000000 =
b1010001100000000000 Y
b110000000001000 6
b1000 '
b1000 7
b1 X
b1000 5
b100 (
b100 E
b100 W
b1 !
b1 C
b1 `
1"
#260000
0"
#270000
b1 S
b10 -
b10 \
b10 %
b10 A
b10 I
b10 R
b10 4
b10 F
b10 .
b10 T
b10 ^
b110 0
b110 [
b1100001100000000000 =
b1100001100000000000 Y
b110000000001100 6
b1100 '
b1100 7
b10 X
b1000 !
b1000 C
b1000 `
b1100 5
b1000 (
b1000 E
b1000 W
1"
#280000
0"
#290000
b0 S
b1 -
b1 \
b1 %
b1 A
b1 I
b1 R
b1 4
b1 F
b1 .
b1 T
b1 ^
b111 0
b111 [
b1110001100000000000 =
b1110001100000000000 Y
b110000000010000 6
b10000 '
b10000 7
b11 X
b10000 5
b1100 (
b1100 E
b1100 W
b100 !
b100 C
b100 `
1"
#300000
0"
#310000
b100 S
b1000 -
b1000 \
b1000 %
b1000 A
b1000 I
b1000 R
b1000 4
b1000 F
b1000 .
b1000 T
b1000 ^
b100 0
b100 [
b1000001100000000000 =
b1000001100000000000 Y
b110000000000100 6
b100 '
b100 7
b0 X
b10 !
b10 C
b10 `
b100 5
b0 (
b0 E
b0 W
1"
#320000
0"
#330000
b10 S
b100 -
b100 \
b100 %
b100 A
b100 I
b100 R
b100 4
b100 F
b100 .
b100 T
b100 ^
b101 0
b101 [
b1010001100000000000 =
b1010001100000000000 Y
b110000000001000 6
b1000 '
b1000 7
b1 X
b1000 5
b100 (
b100 E
b100 W
b1 !
b1 C
b1 `
1"
#340000
0"
#350000
b1 S
b10 -
b10 \
b10 %
b10 A
b10 I
b10 R
b10 4
b10 F
b10 .
b10 T
b10 ^
b110 0
b110 [
b1100001100000000000 =
b1100001100000000000 Y
b110000000001100 6
b1100 '
b1100 7
b10 X
b1000 !
b1000 C
b1000 `
b1100 5
b1000 (
b1000 E
b1000 W
1"
#360000
0"
#370000
b0 S
b1 -
b1 \
b1 %
b1 A
b1 I
b1 R
b1 4
b1 F
b1 .
b1 T
b1 ^
b111 0
b111 [
b1110001100000000000 =
b1110001100000000000 Y
b110000000010000 6
b10000 '
b10000 7
b11 X
b10000 5
b1100 (
b1100 E
b1100 W
b100 !
b100 C
b100 `
1"
#380000
0"
#390000
b100 S
b1000 -
b1000 \
b1000 %
b1000 A
b1000 I
b1000 R
b1000 4
b1000 F
b1000 .
b1000 T
b1000 ^
b100 0
b100 [
b1000001100000000000 =
b1000001100000000000 Y
b110000000000100 6
b100 '
b100 7
b0 X
b10 !
b10 C
b10 `
b100 5
b0 (
b0 E
b0 W
1"
#400000
0"
#410000
b10 S
b100 -
b100 \
b100 %
b100 A
b100 I
b100 R
b100 4
b100 F
b100 .
b100 T
b100 ^
b101 0
b101 [
b1010001100000000000 =
b1010001100000000000 Y
b110000000001000 6
b1000 '
b1000 7
b1 X
b1000 5
b100 (
b100 E
b100 W
b1 !
b1 C
b1 `
1"
#420000
0"
#430000
b1 S
b10 -
b10 \
b10 %
b10 A
b10 I
b10 R
b10 4
b10 F
b10 .
b10 T
b10 ^
b110 0
b110 [
b1100001100000000000 =
b1100001100000000000 Y
b110000000001100 6
b1100 '
b1100 7
b10 X
b1000 !
b1000 C
b1000 `
b1100 5
b1000 (
b1000 E
b1000 W
1"
#440000
0"
#450000
b0 S
b1 -
b1 \
b1 %
b1 A
b1 I
b1 R
b1 4
b1 F
b1 .
b1 T
b1 ^
b111 0
b111 [
b1110001100000000000 =
b1110001100000000000 Y
b110000000010000 6
b10000 '
b10000 7
b11 X
b10000 5
b1100 (
b1100 E
b1100 W
b100 !
b100 C
b100 `
1"
#460000
0"
#470000
b100 S
b1000 -
b1000 \
b1000 %
b1000 A
b1000 I
b1000 R
b1000 4
b1000 F
b1000 .
b1000 T
b1000 ^
b100 0
b100 [
b1000001100000000000 =
b1000001100000000000 Y
b110000000000100 6
b100 '
b100 7
b0 X
b10 !
b10 C
b10 `
b100 5
b0 (
b0 E
b0 W
1"
#480000
0"
#490000
b10 S
b100 -
b100 \
b100 %
b100 A
b100 I
b100 R
b100 4
b100 F
b100 .
b100 T
b100 ^
b101 0
b101 [
b1010001100000000000 =
b1010001100000000000 Y
b110000000001000 6
b1000 '
b1000 7
b1 X
b1000 5
b100 (
b100 E
b100 W
b1 !
b1 C
b1 `
1"
#500000
0"
#510000
b1 S
b10 -
b10 \
b10 %
b10 A
b10 I
b10 R
b10 4
b10 F
b10 .
b10 T
b10 ^
b110 0
b110 [
b1100001100000000000 =
b1100001100000000000 Y
b110000000001100 6
b1100 '
b1100 7
b10 X
b1000 !
b1000 C
b1000 `
b1100 5
b1000 (
b1000 E
b1000 W
1"
#520000
0"
#530000
b0 S
b1 -
b1 \
b1 %
b1 A
b1 I
b1 R
b1 4
b1 F
b1 .
b1 T
b1 ^
b111 0
b111 [
b1110001100000000000 =
b1110001100000000000 Y
b110000000010000 6
b10000 '
b10000 7
b11 X
b10000 5
b1100 (
b1100 E
b1100 W
b100 !
b100 C
b100 `
1"
#540000
0"
#550000
b100 S
b1000 -
b1000 \
b1000 %
b1000 A
b1000 I
b1000 R
b1000 4
b1000 F
b1000 .
b1000 T
b1000 ^
b100 0
b100 [
b1000001100000000000 =
b1000001100000000000 Y
b110000000000100 6
b100 '
b100 7
b0 X
b10 !
b10 C
b10 `
b100 5
b0 (
b0 E
b0 W
1"
#560000
0"
#570000
b10 S
b100 -
b100 \
b100 %
b100 A
b100 I
b100 R
b100 4
b100 F
b100 .
b100 T
b100 ^
b101 0
b101 [
b1010001100000000000 =
b1010001100000000000 Y
b110000000001000 6
b1000 '
b1000 7
b1 X
b1000 5
b100 (
b100 E
b100 W
b1 !
b1 C
b1 `
1"
#580000
0"
#590000
b1 S
b10 -
b10 \
b10 %
b10 A
b10 I
b10 R
b10 4
b10 F
b10 .
b10 T
b10 ^
b110 0
b110 [
b1100001100000000000 =
b1100001100000000000 Y
b110000000001100 6
b1100 '
b1100 7
b10 X
b1000 !
b1000 C
b1000 `
b1100 5
b1000 (
b1000 E
b1000 W
1"
#600000
0"
#610000
b0 S
b1 -
b1 \
b1 %
b1 A
b1 I
b1 R
b1 4
b1 F
b1 .
b1 T
b1 ^
b111 0
b111 [
b1110001100000000000 =
b1110001100000000000 Y
b110000000010000 6
b10000 '
b10000 7
b11 X
b10000 5
b1100 (
b1100 E
b1100 W
b100 !
b100 C
b100 `
1"
#620000
0"
#630000
b100 S
b1000 -
b1000 \
b1000 %
b1000 A
b1000 I
b1000 R
b1000 4
b1000 F
b1000 .
b1000 T
b1000 ^
b100 0
b100 [
b1000001100000000000 =
b1000001100000000000 Y
b110000000000100 6
b100 '
b100 7
b0 X
b10 !
b10 C
b10 `
b100 5
b0 (
b0 E
b0 W
1"
#640000
0"
#650000
b10 S
b100 -
b100 \
b100 %
b100 A
b100 I
b100 R
b100 4
b100 F
b100 .
b100 T
b100 ^
b101 0
b101 [
b1010001100000000000 =
b1010001100000000000 Y
b110000000001000 6
b1000 '
b1000 7
b1 X
b1000 5
b100 (
b100 E
b100 W
b1 !
b1 C
b1 `
1"
#660000
0"
#670000
b1 S
b10 -
b10 \
b10 %
b10 A
b10 I
b10 R
b10 4
b10 F
b10 .
b10 T
b10 ^
b110 0
b110 [
b1100001100000000000 =
b1100001100000000000 Y
b110000000001100 6
b1100 '
b1100 7
b10 X
b1000 !
b1000 C
b1000 `
b1100 5
b1000 (
b1000 E
b1000 W
1"
#680000
0"
#690000
b0 S
b1 -
b1 \
b1 %
b1 A
b1 I
b1 R
b1 4
b1 F
b1 .
b1 T
b1 ^
b111 0
b111 [
b1110001100000000000 =
b1110001100000000000 Y
b110000000010000 6
b10000 '
b10000 7
b11 X
b10000 5
b1100 (
b1100 E
b1100 W
b100 !
b100 C
b100 `
1"
#700000
0"
#710000
b100 S
b1000 -
b1000 \
b1000 %
b1000 A
b1000 I
b1000 R
b1000 4
b1000 F
b1000 .
b1000 T
b1000 ^
b100 0
b100 [
b1000001100000000000 =
b1000001100000000000 Y
b110000000000100 6
b100 '
b100 7
b0 X
b10 !
b10 C
b10 `
b100 5
b0 (
b0 E
b0 W
1"
#720000
0"
#730000
b10 S
b100 -
b100 \
b100 %
b100 A
b100 I
b100 R
b100 4
b100 F
b100 .
b100 T
b100 ^
b101 0
b101 [
b1010001100000000000 =
b1010001100000000000 Y
b110000000001000 6
b1000 '
b1000 7
b1 X
b1000 5
b100 (
b100 E
b100 W
b1 !
b1 C
b1 `
1"
#740000
0"
#750000
b1 S
b10 -
b10 \
b10 %
b10 A
b10 I
b10 R
b10 4
b10 F
b10 .
b10 T
b10 ^
b110 0
b110 [
b1100001100000000000 =
b1100001100000000000 Y
b110000000001100 6
b1100 '
b1100 7
b10 X
b1000 !
b1000 C
b1000 `
b1100 5
b1000 (
b1000 E
b1000 W
1"
#760000
0"
#770000
b0 S
b1 -
b1 \
b1 %
b1 A
b1 I
b1 R
b1 4
b1 F
b1 .
b1 T
b1 ^
b111 0
b111 [
b1110001100000000000 =
b1110001100000000000 Y
b110000000010000 6
b10000 '
b10000 7
b11 X
b10000 5
b1100 (
b1100 E
b1100 W
b100 !
b100 C
b100 `
1"
#780000
0"
#790000
b100 S
b1000 -
b1000 \
b1000 %
b1000 A
b1000 I
b1000 R
b1000 4
b1000 F
b1000 .
b1000 T
b1000 ^
b100 0
b100 [
b1000001100000000000 =
b1000001100000000000 Y
b110000000000100 6
b100 '
b100 7
b0 X
b10 !
b10 C
b10 `
b100 5
b0 (
b0 E
b0 W
1"
#800000
0"
#810000
b10 S
b100 -
b100 \
b100 %
b100 A
b100 I
b100 R
b100 4
b100 F
b100 .
b100 T
b100 ^
b101 0
b101 [
b1010001100000000000 =
b1010001100000000000 Y
b110000000001000 6
b1000 '
b1000 7
b1 X
b1000 5
b100 (
b100 E
b100 W
b1 !
b1 C
b1 `
1"
#820000
0"
#830000
b1 S
b10 -
b10 \
b10 %
b10 A
b10 I
b10 R
b10 4
b10 F
b10 .
b10 T
b10 ^
b110 0
b110 [
b1100001100000000000 =
b1100001100000000000 Y
b110000000001100 6
b1100 '
b1100 7
b10 X
b1000 !
b1000 C
b1000 `
b1100 5
b1000 (
b1000 E
b1000 W
1"
#840000
0"
#850000
b0 S
b1 -
b1 \
b1 %
b1 A
b1 I
b1 R
b1 4
b1 F
b1 .
b1 T
b1 ^
b111 0
b111 [
b1110001100000000000 =
b1110001100000000000 Y
b110000000010000 6
b10000 '
b10000 7
b11 X
b10000 5
b1100 (
b1100 E
b1100 W
b100 !
b100 C
b100 `
1"
#860000
0"
#870000
b100 S
b1000 -
b1000 \
b1000 %
b1000 A
b1000 I
b1000 R
b1000 4
b1000 F
b1000 .
b1000 T
b1000 ^
b100 0
b100 [
b1000001100000000000 =
b1000001100000000000 Y
b110000000000100 6
b100 '
b100 7
b0 X
b10 !
b10 C
b10 `
b100 5
b0 (
b0 E
b0 W
1"
#880000
0"
#890000
b10 S
b100 -
b100 \
b100 %
b100 A
b100 I
b100 R
b100 4
b100 F
b100 .
b100 T
b100 ^
b101 0
b101 [
b1010001100000000000 =
b1010001100000000000 Y
b110000000001000 6
b1000 '
b1000 7
b1 X
b1000 5
b100 (
b100 E
b100 W
b1 !
b1 C
b1 `
1"
#900000
0"
#910000
b1 S
b10 -
b10 \
b10 %
b10 A
b10 I
b10 R
b10 4
b10 F
b10 .
b10 T
b10 ^
b110 0
b110 [
b1100001100000000000 =
b1100001100000000000 Y
b110000000001100 6
b1100 '
b1100 7
b10 X
b1000 !
b1000 C
b1000 `
b1100 5
b1000 (
b1000 E
b1000 W
1"
#920000
0"
#930000
b0 S
b1 -
b1 \
b1 %
b1 A
b1 I
b1 R
b1 4
b1 F
b1 .
b1 T
b1 ^
b111 0
b111 [
b1110001100000000000 =
b1110001100000000000 Y
b110000000010000 6
b10000 '
b10000 7
b11 X
b10000 5
b1100 (
b1100 E
b1100 W
b100 !
b100 C
b100 `
1"
#940000
0"
#950000
b100 S
b1000 -
b1000 \
b1000 %
b1000 A
b1000 I
b1000 R
b1000 4
b1000 F
b1000 .
b1000 T
b1000 ^
b100 0
b100 [
b1000001100000000000 =
b1000001100000000000 Y
b110000000000100 6
b100 '
b100 7
b0 X
b10 !
b10 C
b10 `
b100 5
b0 (
b0 E
b0 W
1"
#960000
0"
#970000
b10 S
b100 -
b100 \
b100 %
b100 A
b100 I
b100 R
b100 4
b100 F
b100 .
b100 T
b100 ^
b101 0
b101 [
b1010001100000000000 =
b1010001100000000000 Y
b110000000001000 6
b1000 '
b1000 7
b1 X
b1000 5
b100 (
b100 E
b100 W
b1 !
b1 C
b1 `
1"
#980000
0"
#990000
b1 S
b10 -
b10 \
b10 %
b10 A
b10 I
b10 R
b10 4
b10 F
b10 .
b10 T
b10 ^
b110 0
b110 [
b1100001100000000000 =
b1100001100000000000 Y
b110000000001100 6
b1100 '
b1100 7
b10 X
b1000 !
b1000 C
b1000 `
b1100 5
b1000 (
b1000 E
b1000 W
1"
